<?xml version="1.0" encoding="UTF-8" standalone="no"?>
<!-- Created with Inkscape (http://www.inkscape.org/) -->

<svg
   xmlns:dc="http://purl.org/dc/elements/1.1/"
   xmlns:cc="http://creativecommons.org/ns#"
   xmlns:rdf="http://www.w3.org/1999/02/22-rdf-syntax-ns#"
   xmlns:svg="http://www.w3.org/2000/svg"
   xmlns="http://www.w3.org/2000/svg"
   xmlns:xlink="http://www.w3.org/1999/xlink"
   xmlns:sodipodi="http://sodipodi.sourceforge.net/DTD/sodipodi-0.dtd"
   xmlns:inkscape="http://www.inkscape.org/namespaces/inkscape"
   width="992.01398"
   height="1348.2172"
   id="svg2"
   version="1.1"
   inkscape:version="0.48.2 r9819"
   sodipodi:docname="icone_pyspc.svg"
   inkscape:export-filename="C:\Users\rmarty\Desktop\ICONS\icone_pyspc_300.png"
   inkscape:export-xdpi="300"
   inkscape:export-ydpi="300">
  <defs
     id="defs4">
    <linearGradient
       id="linearGradient3813">
      <stop
         style="stop-color:#add8e6;stop-opacity:1;"
         offset="0"
         id="stop3815" />
      <stop
         id="stop3847"
         offset="0.5"
         style="stop-color:#1e90ff;stop-opacity:1;" />
      <stop
         style="stop-color:#4169e1;stop-opacity:1;"
         offset="1"
         id="stop3817" />
    </linearGradient>
    <linearGradient
       id="linearGradient3826">
      <stop
         style="stop-color:#006400;stop-opacity:1;"
         offset="0"
         id="stop3828" />
      <stop
         style="stop-color:#228b22;stop-opacity:0.39215687;"
         offset="1"
         id="stop3830" />
    </linearGradient>
    <linearGradient
       id="linearGradient3808">
      <stop
         id="stop3824"
         offset="0"
         style="stop-color:#006400;stop-opacity:1;" />
      <stop
         id="stop3822"
         offset="1"
         style="stop-color:#1e90ff;stop-opacity:1;" />
    </linearGradient>
    <linearGradient
       id="linearGradient3784">
      <stop
         style="stop-color:#228b22;stop-opacity:1;"
         offset="0"
         id="stop3786" />
      <stop
         style="stop-color:#1e90ff;stop-opacity:0.39215687;"
         offset="1"
         id="stop3788" />
    </linearGradient>
    <linearGradient
       inkscape:collect="always"
       xlink:href="#linearGradient3784"
       id="linearGradient3842"
       gradientUnits="userSpaceOnUse"
       x1="203.8642"
       y1="505.58005"
       x2="500.21213"
       y2="505.58005" />
    <linearGradient
       inkscape:collect="always"
       xlink:href="#linearGradient3826"
       id="linearGradient3844"
       gradientUnits="userSpaceOnUse"
       x1="68.603973"
       y1="470.8045"
       x2="292.90161"
       y2="470.8045" />
    <linearGradient
       inkscape:collect="always"
       xlink:href="#linearGradient3808"
       id="linearGradient3846"
       gradientUnits="userSpaceOnUse"
       spreadMethod="pad"
       x1="74.580711"
       y1="683.4162"
       x2="484.57983"
       y2="683.4162" />
    <linearGradient
       inkscape:collect="always"
       xlink:href="#linearGradient3813"
       id="linearGradient3819"
       x1="-368.52243"
       y1="240.3593"
       x2="1279.4086"
       y2="240.3593"
       gradientUnits="userSpaceOnUse"
       gradientTransform="translate(-1209.3302,-906.99766)" />
    <linearGradient
       inkscape:collect="always"
       xlink:href="#linearGradient3808"
       id="linearGradient5289"
       x1="-235.12843"
       y1="328.41858"
       x2="1113.0887"
       y2="328.41858"
       gradientUnits="userSpaceOnUse"
       gradientTransform="matrix(0,-1,1,0,110.56156,767.39871)" />
    <linearGradient
       inkscape:collect="always"
       xlink:href="#linearGradient3808"
       id="linearGradient5297"
       x1="-221.64574"
       y1="328.41858"
       x2="1099.606"
       y2="328.41858"
       gradientUnits="userSpaceOnUse"
       gradientTransform="matrix(0,-1,1,0,110.56156,767.39871)" />
  </defs>
  <sodipodi:namedview
     id="base"
     pagecolor="#ffffff"
     bordercolor="#666666"
     borderopacity="1.0"
     inkscape:pageopacity="0.0"
     inkscape:pageshadow="2"
     inkscape:zoom="0.48137646"
     inkscape:cx="496.00699"
     inkscape:cy="674.10858"
     inkscape:document-units="px"
     inkscape:current-layer="layer1"
     showgrid="false"
     inkscape:window-width="1600"
     inkscape:window-height="838"
     inkscape:window-x="-8"
     inkscape:window-y="-8"
     inkscape:window-maximized="1"
     fit-margin-top="0"
     fit-margin-left="0"
     fit-margin-right="0"
     fit-margin-bottom="0" />
  <metadata
     id="metadata7">
    <rdf:RDF>
      <cc:Work
         rdf:about="">
        <dc:format>image/svg+xml</dc:format>
        <dc:type
           rdf:resource="http://purl.org/dc/dcmitype/StillImage" />
        <dc:title></dc:title>
      </cc:Work>
    </rdf:RDF>
  </metadata>
  <g
     inkscape:label="Calque 1"
     inkscape:groupmode="layer"
     id="layer1"
     transform="translate(57.02686,345.69)">
    <path
       style="fill:url(#linearGradient5289);fill-opacity:1.0;stroke:url(#linearGradient5297);stroke-width:26.96542358000000000;stroke-opacity:1"
       inkscape:connector-curvature="0"
       id="path6-31"
       d="m 430.54499,-332.20729 c -26.9654,55.8183 -63.4227,105.1921 -99.1248,153.5411 l -4.5033,6.0942 c -32.6821,44.3042 -65.8226,88.3387 -98.9361,132.3732 C 161.8615,47.70851 93.5042,138.58201 30.1355,230.04873 c -219.73863,359.085 91.5449,750.62971 414.62029,758.99571 l 0.027,0 C 709.18951,968.58474 914.75771,690.11872 921.50441,492.79983 904.30581,294.82403 769.26571,136.99161 667.08561,-1.5302904 642.68191,-35.18319 616.74129,-67.08329 589.26349,-100.84399 c -57.9487,-71.2966 -117.3806,-144.319 -158.7185,-231.3633 z"
       sodipodi:nodetypes="ccccccccccc" />
    <g
       transform="matrix(29.571797,0,0,29.571797,-515.69083,-695.19306)"
       id="g8"
       style="fill:#f00000;fill-opacity:1">
      <path
         style="fill:#f00000;fill-opacity:1"
         inkscape:connector-curvature="0"
         id="path10"
         d="m 46.958,39.268 -0.011,0.39 c -0.045,7.919 -6.037,14.781 -13.344,15.293 -0.423,0.033 -0.835,0.045 -1.236,0.045 -7.585,0 -13.789,-5.146 -15.081,-12.52 -0.713,-4.054 0.022,-7.574 2.239,-10.771 0.846,-1.225 1.715,-2.45 2.617,-3.664 0.969,0.668 2.139,1.047 3.408,1.047 2.096,0 3.939,-1.051 5.039,-2.656 0.321,-0.468 1.011,-0.469 1.332,-0.002 1.105,1.606 2.949,2.658 5.046,2.658 1.626,0 3.096,-0.635 4.188,-1.66 1.515,2.139 3.007,4.333 4.377,6.538 1.025,1.67 1.56,3.653 1.426,5.302 z" />
    </g>
    <g
       transform="matrix(29.984375,0,0,29.984375,-528.88407,-708.47607)"
       id="g8-1"
       style="fill:#ff7800;fill-opacity:1">
      <g
         id="g10"
         style="fill:#ff7800;fill-opacity:1">
        <path
           style="fill:#ff7800;fill-opacity:1"
           inkscape:connector-curvature="0"
           id="path12"
           d="m 20.562,30.522 c 0,-0.011 -0.011,-0.011 -0.011,-0.022 0.011,-0.033 0.033,-0.066 0.055,-0.088 -0.011,0.033 -0.033,0.077 -0.044,0.11 z" />
        <path
           style="fill:#ff7800;fill-opacity:1"
           inkscape:connector-curvature="0"
           id="path14"
           d="m 43.084,30.522 c -0.022,-0.055 -0.044,-0.11 -0.077,-0.165 0.033,0.044 0.066,0.077 0.088,0.121 0,0.011 0,0.033 -0.011,0.044 z" />
        <path
           style="fill:#ff7800;fill-opacity:1"
           inkscape:connector-curvature="0"
           id="path16"
           d="m 46.765,38.421 c 0.011,0.264 0.011,0.505 -0.011,0.747 l -0.011,0.385 c -0.044,7.811 -5.955,14.579 -13.162,15.085 -0.417,0.033 -0.824,0.044 -1.219,0.044 -7.482,0 -13.601,-5.076 -14.876,-12.349 -0.253,-1.428 -0.319,-2.78 -0.198,-4.076 1.505,-0.637 2.681,-1.857 3.274,-3.384 0.868,2.263 3.054,3.867 5.625,3.867 2.571,0 4.757,-1.604 5.625,-3.867 0.879,2.263 3.065,3.867 5.636,3.867 2.571,0 4.757,-1.604 5.636,-3.867 0.637,1.659 1.989,2.966 3.681,3.548 z" />
      </g>
    </g>
    <g
       transform="matrix(30.283619,0,0,30.283619,-538.50951,-726.83938)"
       id="g8-2"
       style="fill:#ffff64;fill-opacity:1">
      <g
         id="g10-1"
         style="fill:#ffff64;fill-opacity:1">
        <path
           style="fill:#ffff64;fill-opacity:1"
           inkscape:connector-curvature="0"
           id="path12-4"
           d="m 20.562,30.522 c 0,-0.011 -0.011,-0.011 -0.011,-0.022 0.011,-0.033 0.033,-0.066 0.055,-0.088 -0.011,0.033 -0.033,0.077 -0.044,0.11 z" />
        <path
           style="fill:#ffff64;fill-opacity:1"
           inkscape:connector-curvature="0"
           id="path14-9"
           d="m 43.084,30.522 c -0.022,-0.055 -0.044,-0.11 -0.077,-0.165 0.033,0.044 0.066,0.077 0.088,0.121 0,0.011 0,0.033 -0.011,0.044 z" />
        <path
           style="fill:#ffff64;fill-opacity:1"
           inkscape:connector-curvature="0"
           id="path16-8"
           d="m 46.241,43.327 v 0.039 c -1.559,6.089 -6.66,10.852 -12.663,11.268 -0.416,0.039 -0.823,0.048 -1.22,0.048 -7.338,0 -13.369,-4.879 -14.783,-11.936 1.113,-0.687 1.985,-1.723 2.459,-2.962 0.871,2.265 3.049,3.863 5.625,3.863 2.575,0 4.753,-1.597 5.625,-3.863 0.881,2.265 3.069,3.863 5.634,3.863 2.575,0 4.763,-1.597 5.634,-3.863 0.639,1.655 1.994,2.962 3.689,3.543 z" />
      </g>
    </g>
  </g>
</svg>
